<svg id="Слой_1" data-name="Слой 1" xmlns="http://www.w3.org/2000/svg" width="24" height="24" viewBox="0 0 24 24">
  <defs>
    <style>
      .cls-1, .cls-2 {
        fill: none;
      }

      .cls-2 {
        stroke: #fff;
        stroke-linecap: round;
        stroke-linejoin: round;
        stroke-width: 2px;
      }
    </style>
  </defs>
  <title>back</title>
  <g>
    <path class="cls-1" d="M0,0H24V24H0Z"/>
    <polyline class="cls-2" points="15.5 19.5 8.5 12 15.5 4.5"/>
  </g>
</svg>
