<svg id="Слой_1" data-name="Слой 1" xmlns="http://www.w3.org/2000/svg" width="24" height="24" viewBox="0 0 24 24">
  <defs>
    <style>
      .cls-1, .cls-2 {
        fill: none;
      }

      .cls-2 {
        stroke: white;
        stroke-miterlimit: 10;
        stroke-width: 2px;
      }
    </style>
  </defs>
  <title>calendar</title>
  <g>
    <rect class="cls-1" width="24" height="24"/>
    <g>
      <rect class="cls-2" x="3" y="5" width="18" height="16" rx="2" ry="2"/>
      <line class="cls-2" x1="4" y1="11" x2="21" y2="11"/>
      <g>
        <line class="cls-2" x1="7" y1="8" x2="7" y2="2"/>
        <line class="cls-2" x1="17" y1="8" x2="17" y2="2"/>
      </g>
    </g>
  </g>
</svg>
