<?xml version="1.0" encoding="utf-8"?>
<!-- Generator: Adobe Illustrator 22.0.1, SVG Export Plug-In . SVG Version: 6.00 Build 0)  -->
<svg version="1.1" id="Слой_1" xmlns="http://www.w3.org/2000/svg" xmlns:xlink="http://www.w3.org/1999/xlink" x="0px" y="0px"
	 width="24px" height="24px" viewBox="0 0 24 24" style="enable-background:new 0 0 24 24;" xml:space="preserve">
<style type="text/css">
	.st0{fill:none;}
</style>
<path class="st0" d="M0,0h24v24H0V0z"/>
<path d="M14.5,2C16.4,2,18,3.6,18,5.5c0,0.5-0.1,1-0.3,1.5L21,7c0.6,0,1,0.4,1,1v4c0,0.6-0.4,1-1,1h-1v8c0,0.6-0.4,1-1,1H5
	c-0.6,0-1-0.4-1-1v-8H3c-0.6,0-1-0.4-1-1V8c0-0.6,0.4-1,1-1l3.3,0C5.5,5.3,6.2,3.2,8,2.3c1.4-0.6,3-0.4,4,0.7
	C12.7,2.4,13.6,2,14.5,2z M18,13H6v7h12V13z M20,9H4v2h16V9z M9.5,4C8.7,4,8,4.7,8,5.5C8,6.3,8.6,6.9,9.4,7l0.1,0H11V5.5
	c0-0.8-0.6-1.4-1.4-1.5L9.5,4z M14.5,4l-0.1,0c-0.7,0.1-1.3,0.6-1.4,1.3l0,0.1V7h1.5l0.1,0c0.8-0.1,1.4-0.8,1.3-1.6
	c-0.1-0.7-0.6-1.3-1.3-1.3L14.5,4z"/>
</svg>
