<svg id="Слой_1" data-name="Слой 1" xmlns="http://www.w3.org/2000/svg" width="9.72" height="16.72" viewBox="0 0 9.72 16.72">
  <g>
    <path class="cls-1" d="M7.45,8a1,1,0,0,0-1,1,1,1,0,0,0,1,1h7.78a1,1,0,0,0,0-2Zm3.9,12.84a4.58,4.58,0,0,0,3.28-1.15,4.94,4.94,0,0,0,1.45-3.89V13a1,1,0,0,0-1-1H7.59a1,1,0,0,0-1,1V15.6a5.46,5.46,0,0,0,1.25,3.87,4.52,4.52,0,0,0,3.48,1.36ZM14.4,14V15.5a3.4,3.4,0,0,1-.89,2.56,3,3,0,0,1-2.16.72A3,3,0,0,1,9.17,18a3.48,3.48,0,0,1-.87-2.56V14Z" transform="translate(-6.48 -4.12)"/>
    <g>
      <circle class="cls-2" cx="6.4" cy="1" r="1"/>
      <circle class="cls-2" cx="3.33" cy="1" r="1"/>
    </g>
  </g>
</svg>
