<svg id="Слой_1" data-name="Слой 1" xmlns="http://www.w3.org/2000/svg" width="18" height="18" viewBox="0 0 18 18">
  <defs>
    <style>
      .cls-1 {
        fill: none;
      }

      .cls-2 {
        fill: #c9ccd5;
      }
    </style>
  </defs>
  <title>question-line</title>
  <path class="cls-1" d="M0,0H18V18H0Z"/>
  <path class="cls-2" d="M9,16.5A7.5,7.5,0,1,1,16.5,9,7.5,7.5,0,0,1,9,16.5ZM9,15A6,6,0,1,0,3,9,6,6,0,0,0,9,15Zm-.75-3.75h1.5v1.5H8.25ZM9.75,10v.48H8.25V9.38A.75.75,0,0,1,9,8.63,1.13,1.13,0,0,0,10.12,7.5,1.12,1.12,0,0,0,7.9,7.28L6.43,7a2.62,2.62,0,1,1,3.32,3Z"/>
</svg>
